Project 1
…
I joined both datasets, Student_MCAT and Student_GPA, through the full_join() and joining through the common varibale of “ID”. Reason being is becasue the data had only one vairbale in common and each subset of data had their own unique collection of vairbales with only one in common. Any NAs in the data omitted in the following steps.

Wrangling:

MCAT_GPA<- MCAT_GPA %>% filter(complete.cases(MCAT_GPA))
MCAT_GPA%>%arrange(desc(MCAT))

## # A tibble: 54 x 12
##       ID    VR    PS    WS    BS  MCAT Accept Acceptance  BCPM  Apps Sex     GPA
##    <dbl> <dbl> <dbl> <dbl> <dbl> <dbl> <chr>       <dbl> <dbl> <dbl> <chr> <dbl>
##  1    20    13    14     8    13    48 A               1  3.95     5 M      3.89
##  2    47    11    13    10    14    48 A               1  3.98     6 F      3.97
##  3     2    12    13     8    12    45 A               1  3.75     3 M      3.84
##  4    21    13    10     8    10    41 A               1  3.71     6 F      3.71
##  5    23    10    13     6    12    41 A               1  4       17 M      3.91
##  6    30    10    11    10    10    41 A               1  3.78     5 F      3.82
##  7    35    11    12     8    10    41 D               0  3.22    11 M      3.24
##  8     4    12    11     7    10    40 A               1  3.74     5 F      3.69
##  9     7    11    12     6    11    40 A               1  3.85     5 M      3.89
## 10    36    10    11     8    11    40 A               1  3.87     8 M      3.86
## # … with 44 more rows

MCAT_GPA%>%dplyr::select("GPA", "Sex", "Accept" )%>%arrange(desc(GPA))

## # A tibble: 54 x 3
##      GPA Sex   Accept
##    <dbl> <chr> <chr> 
##  1  3.97 F     A     
##  2  3.97 F     A     
##  3  3.94 F     A     
##  4  3.91 M     A     
##  5  3.89 M     A     
##  6  3.89 F     A     
##  7  3.89 M     A     
##  8  3.89 F     A     
##  9  3.88 M     A     
## 10  3.87 F     A     
## # … with 44 more rows
…
MCAT_GPA%>%summarise_all(n_distinct)

## # A tibble: 1 x 12
##      ID    VR    PS    WS    BS  MCAT Accept Acceptance  BCPM  Apps   Sex   GPA
##   <int> <int> <int> <int> <int> <int>  <int>      <int> <int> <int> <int> <int>
## 1    54     8     8     7     9    14      2          2    42    17     2    39

MCAT_GPA%>% mutate_if(is.numeric, round)

## # A tibble: 54 x 12
##       ID    VR    PS    WS    BS  MCAT Accept Acceptance  BCPM  Apps Sex     GPA
##    <dbl> <dbl> <dbl> <dbl> <dbl> <dbl> <chr>       <dbl> <dbl> <dbl> <chr> <dbl>
##  1     1    11     9     9     9    38 D               0     4     5 F         4
##  2     2    12    13     8    12    45 A               1     4     3 M         4
##  3     3     9    10     5     9    33 A               1     3    19 F         3
##  4     4    12    11     7    10    40 A               1     4     5 F         4
##  5     5     9    11     4    11    35 A               1     4    11 F         3
##  6     6    10     9     7    10    36 A               1     4     5 M         4
##  7     7    11    12     6    11    40 A               1     4     5 M         4
##  8     8    11    11     8     9    39 D               0     3     7 M         3
##  9     9     8    10     6    11    35 A               1     4     5 F         4
## 10    10     9     9     6    10    34 A               1     4    11 F         4
## # … with 44 more rows
…
PAMFINAL<-MCAT_GPA%>%mutate(cluster=as.factor(pam2$clustering))

confmat<-PAMFINAL%>%group_by(Accept, ID, Sex, Acceptance)%>%count(cluster)%>%arrange(desc(n))%>%
pivot_wider(names_from="cluster",values_from="n",values_fill = list('n'=0))

confmat

## # A tibble: 54 x 7
## # Groups:   Accept, ID, Sex, Acceptance [54]
##    Accept    ID Sex   Acceptance   `1`   `2`   `3`
##    <chr>  <dbl> <chr>      <dbl> <int> <int> <int>
##  1 A          2 M              1     1     0     0
##  2 A          3 F              1     0     1     0
##  3 A          4 F              1     1     0     0
##  4 A          5 F              1     0     1     0
##  5 A          6 M              1     0     0     1
##  6 A          7 M              1     1     0     0
##  7 A          9 F              1     0     0     1
##  8 A         10 F              1     0     1     0
##  9 A         11 F              1     1     0     0
## 10 A         12 F              1     0     0     1
## # … with 44 more rows
…
